Magistrale/Calcolatori elettronici 2/Progetto PIA/PIA Definitiva/dump.vcd
$date
  Wed Jul 01 16:59:51 2020
$end
$version
  GHDL v0
$end
$timescale
  1 fs
$end
$var reg 1 ! enable $end
$var reg 1 " reset $end
$var reg 1 # rw $end
$var reg 1 $ ca1 $end
$var reg 1 % ca2 $end
$var reg 1 & cb1 $end
$var reg 1 ' cb2 $end
$var reg 1 ( irqa $end
$var reg 1 ) irqb $end
$var reg 3 * cs[2:0] $end
$var reg 2 + rs[0:1] $end
$var reg 8 , pa[7:0] $end
$var reg 8 - pb[7:0] $end
$var reg 8 . d[7:0] $end
$scope module pia_test $end
$var reg 1 / enable $end
$var reg 3 0 cs[2:0] $end
$var reg 1 1 reset $end
$var reg 8 2 pa[7:0] $end
$var reg 8 3 pb[7:0] $end
$var reg 1 4 ca1 $end
$var reg 1 5 ca2 $end
$var reg 1 6 cb1 $end
$var reg 1 7 cb2 $end
$var reg 8 8 d[7:0] $end
$var reg 1 9 rw $end
$var reg 2 : rs[0:1] $end
$var reg 1 ; irqa $end
$var reg 1 < irqb $end
$var reg 8 = cra[7:0] $end
$var reg 8 > crb[7:0] $end
$var reg 8 ? ddra[7:0] $end
$var reg 8 @ ddrb[7:0] $end
$var reg 8 A pdra[7:0] $end
$var reg 8 B pdrb[7:0] $end
$var reg 8 C d_in[7:0] $end
$var reg 1 D interr $end
$var reg 8 E pa_in[7:0] $end
$var reg 1 F pa_interr $end
$var reg 8 G pb_in[7:0] $end
$var reg 1 H pb_interr $end
$scope module gestione_bus_d $end
$var reg 8 I bidi[7:0] $end
$var reg 8 J input[7:0] $end
$var reg 1 K enable $end
$var reg 1 L interr $end
$var reg 8 M temp1[7:0] $end
$upscope $end
$scope module gestione_bus_pa $end
$var reg 8 N bidi[7:0] $end
$var reg 8 O input[7:0] $end
$var reg 1 P enable $end
$var reg 1 Q interr $end
$var reg 8 R temp1[7:0] $end
$upscope $end
$scope module gestione_bus_pb $end
$var reg 8 S bidi[7:0] $end
$var reg 8 T input[7:0] $end
$var reg 1 U enable $end
$var reg 1 V interr $end
$var reg 8 W temp1[7:0] $end
$upscope $end
$upscope $end
$enddefinitions $end
#0
0!
Z"
Z#
Z$
U%
Z&
U'
0(
0)
bZZZ *
bZZ +
bZZZZZZZZ ,
bZZZZZZZZ -
bZZZZZZZZ .
0/
bZZZ 0
Z1
bZZZZZZZZ 2
bZZZZZZZZ 3
Z4
U5
Z6
U7
bZZZZZZZZ 8
Z9
bZZ :
0;
0<
b00000000 =
b00000000 >
b00000000 ?
b00000000 @
b00000000 A
b00000000 B
bZZZZZZZZ C
ZD
bZZZZZZZZ E
0F
b00000000 G
0H
bZZZZZZZZ I
bZZZZZZZZ J
0K
ZL
bZZZZZZZZ M
bZZZZZZZZ N
bZZZZZZZZ O
0P
0Q
bZZZZZZZZ R
bZZZZZZZZ S
b00000000 T
0U
0V
bZZZZZZZZ W
#5000000
1!
1/
1K
1P
1U
#10000000
0!
0/
0K
0P
0U
b00000000 W
#15000000
1!
1/
1K
1P
1U
#17000000
0"
b011 *
b011 0
01
#20000000
0!
0/
0K
0P
0U
#25000000
1!
1/
1K
1P
1U
#30000000
0!
0/
0K
0P
0U
#35000000
1!
1/
1K
1P
1U
#40000000
0!
0/
0K
0P
0U
#45000000
1!
1/
1K
1P
1U
#47000000
1"
11
#50000000
0!
0/
0K
0P
0U
#55000000
1!
1/
1K
1P
1U
#58000000
b10 +
b10100001 .
b10100001 8
b10 :
b10100001 I
#60000000
0!
0/
0K
0P
0U
#61000000
0#
09
0D
0L
#65000000
1!
1/
1K
1P
1U
#70000000
0!
0/
b00100001 =
0K
0P
0U
#71000000
Z#
bZZ +
bZZZZZZZZ .
bZZZZZZZZ 8
Z9
bZZ :
ZD
bZZZZZZZZ I
ZL
#75000000
1!
1/
1K
1P
1U
#80000000
0!
0/
0K
0P
0U
#85000000
1!
1/
1K
1P
1U
#90000000
0!
0/
0K
0P
0U
#95000000
1!
1/
1K
1P
1U
#100000000
0!
0/
0K
0P
0U
#105000000
1!
1/
1K
1P
1U
#110000000
0!
0/
0K
0P
0U
#111000000
#115000000
1!
1/
1K
1P
1U
#118000000
b00 +
b00000000 .
b00000000 8
b00 :
b00000000 I
#120000000
0!
0/
0K
0P
0U
#124000000
0#
09
0D
0L
#125000000
1!
1/
1K
1P
1U
#130000000
0!
0/
0K
0P
0U
#135000000
1!
Z#
bZZ +
bZZZZZZZZ .
1/
bZZZZZZZZ 8
Z9
bZZ :
ZD
bZZZZZZZZ I
1K
ZL
1P
1U
#140000000
0!
0/
0K
0P
0U
#145000000
1!
1/
1K
1P
1U
#150000000
0!
0/
0K
0P
0U
#155000000
1!
1/
1K
1P
1U
#160000000
0!
0/
0K
0P
0U
#165000000
1!
b00100101 .
1/
b00100101 8
b00100101 I
1K
1P
1U
#170000000
0!
0/
0K
0P
0U
#171000000
b10 +
b10 :
#174000000
0#
09
0D
0L
#175000000
1!
1/
1K
1P
1U
#180000000
0!
0/
b00100101 =
0K
0P
0U
#184000000
Z#
bZZ +
bZZZZZZZZ .
bZZZZZZZZ 8
Z9
bZZ :
ZD
bZZZZZZZZ I
ZL
#185000000
1!
1/
1K
1P
1U
#190000000
0!
0/
0K
0P
0U
#195000000
1!
1/
1K
1P
1U
#200000000
0!
0/
0K
0P
0U
#205000000
1!
1/
1K
1P
1U
#210000000
0!
0/
0K
0P
0U
#215000000
1!
1/
1K
1P
1U
#220000000
0!
0/
0K
0P
0U
#224000000
b10101111 ,
b10101111 2
b10101111 N
#225000000
1!
1/
1K
1P
1U
#230000000
0!
0/
0K
0P
0U
#231000000
0$
04
#235000000
1!
1/
1K
1P
1U
#240000000
0!
1%
1(
0/
15
1;
b10100101 =
b10101111 A
0K
0P
0U
#243000000
1$
14
#245000000
1!
1/
1K
1P
1U
#250000000
0!
0/
0K
0P
0U
#255000000
1!
1/
1K
1P
1U
#260000000
0!
0/
0K
0P
0U
#262000000
1#
b00 +
19
b00 :
1D
1L
#265000000
1!
1/
1K
1P
1U
#270000000
0!
0%
0(
0/
05
0;
b00100101 =
b10101111 C
b10101111 J
0K
0P
0U
#275000000
1!
1/
1K
1P
1U
#280000000
0!
b10101111 .
0/
b10101111 8
b10101111 I
0K
b10101111 M
0P
0U
#285000000
1!
1/
1K
1P
1U
#290000000
0!
0/
0K
0P
0U
#291000000
Z#
bZZ +
bZZZZZZZZ .
bZZZZZZZZ 8
Z9
bZZ :
ZD
bZZZZZZZZ I
ZL
#295000000
1!
1/
1K
1P
1U
#300000000
0!
0/
0K
0P
0U
#305000000
1!
1/
1K
1P
1U
#310000000
0!
0/
0K
0P
0U
#315000000
1!
1/
1K
1P
1U
#316000000
b11 +
b00100001 .
b00100001 8
b11 :
b00100001 I
#319000000
0#
09
0D
0L
#320000000
0!
0/
b00100001 >
0K
0P
0U
#325000000
1!
1/
1K
1P
1U
#329000000
Z#
bZZ +
bZZZZZZZZ .
bZZZZZZZZ 8
Z9
bZZ :
ZD
bZZZZZZZZ I
ZL
#330000000
0!
0/
0K
0P
0U
#335000000
1!
1/
1K
1P
1U
#340000000
0!
0/
0K
0P
0U
#345000000
1!
1/
1K
1P
1U
#350000000
0!
0/
0K
0P
0U
#355000000
1!
1/
1K
1P
1U
#360000000
0!
0/
0K
0P
0U
#365000000
1!
1/
1K
1P
1U
#369000000
#370000000
0!
0/
0K
0P
0U
#375000000
1!
1/
1K
1P
1U
#376000000
b01 +
b11111111 .
b11111111 8
b01 :
b11111111 I
#380000000
0!
0/
0K
0P
0U
#382000000
0#
09
0D
0L
#385000000
1!
1/
1K
1P
1U
#390000000
0!
b00000000 -
0/
b00000000 3
b11111111 @
1H
0K
0P
b00000000 S
0U
1V
#393000000
Z#
bZZ +
bZZZZZZZZ .
bZZZZZZZZ 8
Z9
bZZ :
ZD
bZZZZZZZZ I
ZL
#395000000
1!
1/
1K
1P
1U
#400000000
0!
0/
0K
0P
0U
#405000000
1!
1/
1K
1P
1U
#410000000
0!
0/
0K
0P
0U
#415000000
1!
1/
1K
1P
1U
#418000000
0&
b11 +
b00100101 .
06
b00100101 8
b11 :
b00100101 I
#420000000
0!
1'
1)
0/
17
1<
b10100001 >
0K
0P
0U
#421000000
0#
09
0D
0L
#425000000
1!
1/
1K
1P
1U
#430000000
0!
0/
b10100101 >
0K
0P
0U
#431000000
Z#
1&
16
Z9
ZD
ZL
#435000000
1!
1/
1K
1P
1U
#440000000
0!
0/
0K
0P
0U
#445000000
1!
1/
1K
1P
1U
#450000000
0!
0/
0K
0P
0U
#455000000
1!
1/
1K
1P
1U
#460000000
0!
0/
0K
0P
0U
#465000000
1!
1/
1K
1P
1U
#470000000
0!
0/
0K
0P
0U
#471000000
#475000000
1!
1/
1K
1P
1U
#478000000
b01 +
b11111111 .
b11111111 8
b01 :
b11111111 I
#480000000
0!
0/
0K
0P
0U
#484000000
0#
09
0D
0L
#485000000
1!
1/
1K
1P
1U
#490000000
0!
0'
0/
07
b11111111 B
0K
0P
0U
#495000000
1!
Z#
bZZ +
bZZZZZZZZ .
1/
bZZZZZZZZ 8
Z9
bZZ :
ZD
bZZZZZZZZ I
1K
ZL
1P
1U
#500000000
0!
0/
b11111111 G
0K
0P
b11111111 T
0U
#505000000
1!
1/
1K
1P
1U
#510000000
0!
b11111111 -
0/
b11111111 3
0K
0P
b11111111 S
0U
b11111111 W
#515000000
1!
1/
1K
1P
1U
#520000000
0!
0/
0K
0P
0U
#525000000
1!
1/
1K
1P
1U
#530000000
0!
0/
0K
0P
0U
#535000000
1!
1/
1K
1P
1U
#540000000
0!
0/
0K
0P
0U
#545000000
1!
1/
1K
1P
1U
#550000000
0!
0/
0K
0P
0U
#555000000
1!
1/
1K
1P
1U
